module ServiceSendMessage

go 1.20

require github.com/go-sql-driver/mysql v1.7.1

require (
	github.com/golang-jwt/jwt v3.2.2+incompatible // indirect
	github.com/labstack/echo/v4 v4.11.1 // indirect
	github.com/labstack/gommon v0.4.0 // indirect
	github.com/mattn/go-colorable v0.1.13 // indirect
	github.com/mattn/go-isatty v0.0.19 // indirect
	github.com/valyala/bytebufferpool v1.0.0 // indirect
	github.com/valyala/fasttemplate v1.2.2 // indirect
	golang.org/x/crypto v0.11.0 // indirect
	golang.org/x/net v0.12.0 // indirect
	golang.org/x/sys v0.10.0 // indirect
	golang.org/x/text v0.11.0 // indirect
	golang.org/x/time v0.3.0 // indirect
	gopkg.in/alexcesaro/quotedprintable.v3 v3.0.0-20150716171945-2caba252f4dc // indirect
	gopkg.in/gomail.v2 v2.0.0-20160411212932-81ebce5c23df // indirect
)
